^C:\USERS\700201382\SOURCE\REPOS\MAD LIB\MAD LIB\MAIN.CPP
C:\USERS\700201382\SOURCE\REPOS\MAD LIB\MAD LIB\DEBUG\VC141.PDB
C:\USERS\700201382\SOURCE\REPOS\MAD LIB\MAD LIB\DEBUG\VC141.IDB
C:\USERS\700201382\SOURCE\REPOS\MAD LIB\MAD LIB\DEBUG\MAIN.OBJ
